[
  {
    "name": "HARLEY-DAVIDSON STREET® 750",
    "price": "7600",
    "currency": "USD",
    "article": "001",
    "color": "Performance Orange",
    "imageUrl": "/moto_images/001.jpg"
  },
  {
    "name": "IRON 1200™",
    "price": "9999",
    "currency": "USD",
    "article": "002",
    "color": "Billiard Blue",
    "imageUrl": "/moto_images/002.webp"
  },
  {
    "name": "LIVEWIRE®",
    "price": "29799",
    "currency": "USD",
    "article": "003",
    "color": "Yellow Fuse",
    "imageUrl": "/moto_images/003.webp"
  },
  {
    "name": "SOFTAIL SLIM®",
    "price": "15999",
    "currency": "USD",
    "article": "004",
    "color": "Billiard Burgundy",
    "imageUrl": "/moto_images/004.webp"
  },
  {
    "name": "LOW RIDER® S",
    "price": "17999",
    "currency": "USD",
    "article": "005",
    "color": "Barracuda Silver",
    "imageUrl": "/moto_images/005.webp"
  },
  {
    "name": "FAT BOY® 114",
    "price": "20599",
    "currency": "USD",
    "article": "006",
    "color": "Vivid Black Anniversary",
    "imageUrl": "/moto_images/006.jpg"
  },
  {
    "name": "CVO™ ROAD GLIDE®",
    "price": "40999",
    "currency": "USD",
    "article": "007",
    "color": "Sand Dune",
    "imageUrl": "/moto_images/007.webp"
  },
  {
    "name": "IRON 883™",
    "price": "8999",
    "currency": "USD",
    "article": "008",
    "color": "Scorched Orange/Silver Flux",
    "imageUrl": "/moto_images/008.webp"
  },
  {
    "name": "FORTY-EIGHT®",
    "price": "11499",
    "currency": "USD",
    "article": "009",
    "color": "Performance Orange",
    "imageUrl": "/moto_images/009.jpg"
  },
  {
    "name": "DELUXE",
    "price": "18399",
    "currency": "USD",
    "article": "010",
    "color": "Scorched Orange/Silver Flux",
    "imageUrl": "/moto_images/010.webp"
  }
]